Taller11_SystemC/state_machine/coffeeM.vcd
$date
     Oct 28, 2019       14:42:55
$end

$version
 SystemC 2.3.1-Accellera --- Oct 25 2019 17:34:25
$end

$timescale
     1 ps
$end

$scope module SystemC $end
$var wire    1  aaaaa  clock       $end
$var wire    8  aaaab  key [7:0]  $end
$var wire    2  aaaac  change [1:0]  $end
$var wire    2  aaaad  product [1:0]  $end
$upscope $end
$enddefinitions  $end

$comment
All initial values are dumped below at time 1e-09 sec = 1000 timescale units.
$end

$dumpvars
0aaaaa
b0 aaaab
b0 aaaac
b0 aaaad
$end

#2000
1aaaaa

#3000
0aaaaa
b110001 aaaab

#4000
1aaaaa

#5000
0aaaaa
b110011 aaaab

#6000
1aaaaa
b1 aaaac

#7000
0aaaaa

#8000
1aaaaa
b0 aaaac
b1 aaaad

#9000
0aaaaa

#10000
1aaaaa
b0 aaaad

#11000
0aaaaa
b110001 aaaab

#12000
1aaaaa

#13000
0aaaaa
b110010 aaaab

#14000
1aaaaa
b10 aaaad

#15000
0aaaaa

#16000
1aaaaa
b0 aaaad

